\relax 
\citation{Fridman17}
\citation{Kim16,Huang17,Howard17,Sandler18}
\citation{Mobilenetv2}
\citation{Fridman17}
\citation{Huang17}
\citation{Huang17}
\@writefile{toc}{\contentsline {section}{\numberline {I}Introduction}{1}}
\newlabel{chap:intro}{{I}{1}}
\@writefile{lof}{\contentsline {figure}{\numberline {1}{\ignorespaces The obstacles on the road}}{1}}
\newlabel{fig:obstacle}{{1}{1}}
\@writefile{toc}{\contentsline {section}{\numberline {II}Background and related work}{1}}
\newlabel{chap:background}{{II}{1}}
\@writefile{toc}{\contentsline {subsection}{\numberline {\unhbox \voidb@x \hbox {II-A}}Obstacle detection and Autonomous Driving}{1}}
\newlabel{chap:autonomousdriving}{{\unhbox \voidb@x \hbox {II-A}}{1}}
\citation{Sandler18}
\citation{Howard17,Sandler18,Mobilenetv2,Chollet17}
\citation{Huang17}
\citation{Kim16}
\citation{Liu16,Howard17,Huang17,Sandler18}
\citation{Sandler18}
\citation{Sandler18}
\citation{Bosch,GTSDB}
\@writefile{toc}{\contentsline {subsection}{\numberline {\unhbox \voidb@x \hbox {II-B}}Mobile-friendly Deep learning}{2}}
\newlabel{chap:mobiledeeplearning}{{\unhbox \voidb@x \hbox {II-B}}{2}}
\@writefile{toc}{\contentsline {section}{\numberline {III}The proposed system}{2}}
\newlabel{chap:proposal}{{III}{2}}
\@writefile{toc}{\contentsline {subsection}{\numberline {\unhbox \voidb@x \hbox {III-A}}Architecture}{2}}
\newlabel{chap:architecture}{{\unhbox \voidb@x \hbox {III-A}}{2}}
\@writefile{lof}{\contentsline {figure}{\numberline {2}{\ignorespaces The proposal architecture}}{2}}
\newlabel{fig:architecture}{{2}{2}}
\@writefile{toc}{\contentsline {subsection}{\numberline {\unhbox \voidb@x \hbox {III-B}}Self-collected dataset}{2}}
\newlabel{self-collected-dataset}{{\unhbox \voidb@x \hbox {III-B}}{2}}
\citation{labelimg}
\citation{tensorflowapi}
\@writefile{lof}{\contentsline {figure}{\numberline {3}{\ignorespaces Labelling the self-collected images}}{3}}
\newlabel{fig:labelling}{{3}{3}}
\@writefile{toc}{\contentsline {section}{\numberline {IV}Evaluation}{3}}
\newlabel{chap:evaluation}{{IV}{3}}
\@writefile{lof}{\contentsline {figure}{\numberline {4}{\ignorespaces Generate to the tensorflow record file}}{3}}
\newlabel{fig:generate_dataset}{{4}{3}}
\@writefile{lof}{\contentsline {figure}{\numberline {5}{\ignorespaces The model with Coco pre-trained dataset}}{3}}
\newlabel{fig:before1}{{5}{3}}
\@writefile{lof}{\contentsline {figure}{\numberline {6}{\ignorespaces The model with GTSDB dataset}}{4}}
\newlabel{fig:before2}{{6}{4}}
\@writefile{lof}{\contentsline {figure}{\numberline {7}{\ignorespaces The model with Bosch dataset}}{4}}
\newlabel{fig:bosch}{{7}{4}}
\@writefile{lof}{\contentsline {figure}{\numberline {8}{\ignorespaces The model with our self-collected dataset}}{4}}
\newlabel{fig:result1}{{8}{4}}
\@writefile{lof}{\contentsline {figure}{\numberline {9}{\ignorespaces The model with our self-collected dataset}}{4}}
\newlabel{fig:result2}{{9}{4}}
\@writefile{toc}{\contentsline {subsection}{\numberline {\unhbox \voidb@x \hbox {IV-A}}Challenges and future work}{4}}
\newlabel{chap:applicationtoreal}{{\unhbox \voidb@x \hbox {IV-A}}{4}}
\citation{sourcecode}
\bibcite{Fridman17}{1}
\bibcite{Kim16}{2}
\bibcite{Huang17}{3}
\bibcite{Howard17}{4}
\bibcite{Sandler18}{5}
\bibcite{Mobilenetv2}{6}
\bibcite{Chollet17}{7}
\bibcite{Liu16}{8}
\bibcite{opencv}{9}
\bibcite{webrtc}{10}
\bibcite{moviepy}{11}
\bibcite{labelimg}{12}
\bibcite{tensorflowapi}{13}
\bibcite{Bosch}{14}
\bibcite{GTSDB}{15}
\bibcite{sourcecode}{16}
\@writefile{lof}{\contentsline {figure}{\numberline {10}{\ignorespaces The model with our self-collected dataset to suggest the price of old cars}}{5}}
\newlabel{fig:carprice}{{10}{5}}
\@writefile{toc}{\contentsline {section}{\numberline {V}Conclusion}{5}}
\newlabel{chap:conclusion}{{V}{5}}
\@writefile{toc}{\contentsline {section}{References}{5}}
\@writefile{lot}{\contentsline {table}{\numberline {I}{\ignorespaces Team Collaboration}}{5}}
\newlabel{teamcollaboration}{{I}{5}}
